<?xml version="1.0" encoding="UTF-8" standalone="no"?>
<!-- Created with Inkscape (http://www.inkscape.org/) -->

<svg
   width="290.92209mm"
   height="64.895653mm"
   viewBox="0 0 290.9221 64.895653"
   version="1.1"
   id="svg5"
   inkscape:version="1.2.2 (b0a8486541, 2022-12-01)"
   sodipodi:docname="diagrama.svg"
   xmlns:inkscape="http://www.inkscape.org/namespaces/inkscape"
   xmlns:sodipodi="http://sodipodi.sourceforge.net/DTD/sodipodi-0.dtd"
   xmlns="http://www.w3.org/2000/svg"
   xmlns:svg="http://www.w3.org/2000/svg">
  <sodipodi:namedview
     id="namedview7"
     pagecolor="#ffffff"
     bordercolor="#666666"
     borderopacity="1.0"
     inkscape:showpageshadow="2"
     inkscape:pageopacity="0.0"
     inkscape:pagecheckerboard="0"
     inkscape:deskcolor="#d1d1d1"
     inkscape:document-units="mm"
     showgrid="false"
     inkscape:zoom="0.8183681"
     inkscape:cx="502.82996"
     inkscape:cy="147.85523"
     inkscape:current-layer="layer1"
     showguides="true">
    <sodipodi:guide
       position="156.2704,57.876314"
       orientation="0,-1"
       id="guide2444"
       inkscape:locked="false" />
  </sodipodi:namedview>
  <defs
     id="defs2">
    <marker
       style="overflow:visible"
       id="TriangleStart"
       refX="2"
       refY="0"
       orient="auto-start-reverse"
       inkscape:stockid="TriangleStart"
       markerWidth="5.3244081"
       markerHeight="6.155385"
       viewBox="0 0 5.3244081 6.1553851"
       inkscape:isstock="true"
       inkscape:collect="always"
       preserveAspectRatio="xMidYMid">
      <path
         style="fill:context-stroke;fill-rule:evenodd;stroke:context-stroke;stroke-width:0.5pt"
         d="M 2.885,0 -1.44,2.5 v -5 z"
         id="path135" />
    </marker>
    <marker
       style="overflow:visible"
       id="TriangleStart-5"
       refX="2"
       refY="0"
       orient="auto-start-reverse"
       inkscape:stockid="TriangleStart"
       markerWidth="5.3244081"
       markerHeight="6.155385"
       viewBox="0 0 5.3244081 6.1553851"
       inkscape:isstock="true"
       inkscape:collect="always"
       preserveAspectRatio="xMidYMid">
      <path
         transform="scale(0.5)"
         style="fill:context-stroke;fill-rule:evenodd;stroke:context-stroke;stroke-width:1pt"
         d="M 5.77,0 -2.88,5 V -5 Z"
         id="path135-3" />
    </marker>
    <marker
       style="overflow:visible"
       id="TriangleStart-9"
       refX="2"
       refY="0"
       orient="auto-start-reverse"
       inkscape:stockid="TriangleStart"
       markerWidth="5.3244081"
       markerHeight="6.155385"
       viewBox="0 0 5.3244081 6.1553851"
       inkscape:isstock="true"
       inkscape:collect="always"
       preserveAspectRatio="xMidYMid">
      <path
         style="fill:context-stroke;fill-rule:evenodd;stroke:context-stroke;stroke-width:0.5pt"
         d="M 2.885,0 -1.44,2.5 v -5 z"
         id="path135-1" />
    </marker>
    <marker
       style="overflow:visible"
       id="TriangleStart-5-2"
       refX="2"
       refY="0"
       orient="auto-start-reverse"
       inkscape:stockid="TriangleStart"
       markerWidth="5.3244081"
       markerHeight="6.155385"
       viewBox="0 0 5.3244081 6.1553851"
       inkscape:isstock="true"
       inkscape:collect="always"
       preserveAspectRatio="xMidYMid">
      <path
         transform="scale(0.5)"
         style="fill:context-stroke;fill-rule:evenodd;stroke:context-stroke;stroke-width:1pt"
         d="M 5.77,0 -2.88,5 V -5 Z"
         id="path135-3-7" />
    </marker>
    <marker
       style="overflow:visible"
       id="TriangleStart-9-3"
       refX="2"
       refY="0"
       orient="auto-start-reverse"
       inkscape:stockid="TriangleStart"
       markerWidth="5.3244081"
       markerHeight="6.155385"
       viewBox="0 0 5.3244081 6.1553851"
       inkscape:isstock="true"
       inkscape:collect="always"
       preserveAspectRatio="xMidYMid">
      <path
         style="fill:context-stroke;fill-rule:evenodd;stroke:context-stroke;stroke-width:0.5pt"
         d="M 2.885,0 -1.44,2.5 v -5 z"
         id="path135-1-7" />
    </marker>
    <marker
       style="overflow:visible"
       id="TriangleStart-5-2-5"
       refX="2"
       refY="0"
       orient="auto-start-reverse"
       inkscape:stockid="TriangleStart"
       markerWidth="5.3244081"
       markerHeight="6.155385"
       viewBox="0 0 5.3244081 6.1553851"
       inkscape:isstock="true"
       inkscape:collect="always"
       preserveAspectRatio="xMidYMid">
      <path
         transform="scale(0.5)"
         style="fill:context-stroke;fill-rule:evenodd;stroke:context-stroke;stroke-width:1pt"
         d="M 5.77,0 -2.88,5 V -5 Z"
         id="path135-3-7-9" />
    </marker>
    <marker
       style="overflow:visible"
       id="TriangleStart-9-6"
       refX="2"
       refY="0"
       orient="auto-start-reverse"
       inkscape:stockid="TriangleStart"
       markerWidth="5.3244081"
       markerHeight="6.155385"
       viewBox="0 0 5.3244081 6.1553851"
       inkscape:isstock="true"
       inkscape:collect="always"
       preserveAspectRatio="xMidYMid">
      <path
         style="fill:context-stroke;fill-rule:evenodd;stroke:context-stroke;stroke-width:0.5pt"
         d="M 2.885,0 -1.44,2.5 v -5 z"
         id="path135-1-1" />
    </marker>
    <marker
       style="overflow:visible"
       id="TriangleStart-5-2-0"
       refX="2"
       refY="0"
       orient="auto-start-reverse"
       inkscape:stockid="TriangleStart"
       markerWidth="5.3244081"
       markerHeight="6.155385"
       viewBox="0 0 5.3244081 6.1553851"
       inkscape:isstock="true"
       inkscape:collect="always"
       preserveAspectRatio="xMidYMid">
      <path
         transform="scale(0.5)"
         style="fill:context-stroke;fill-rule:evenodd;stroke:context-stroke;stroke-width:1pt"
         d="M 5.77,0 -2.88,5 V -5 Z"
         id="path135-3-7-6" />
    </marker>
    <marker
       style="overflow:visible"
       id="TriangleStart-9-35"
       refX="2"
       refY="0"
       orient="auto-start-reverse"
       inkscape:stockid="TriangleStart"
       markerWidth="5.3244081"
       markerHeight="6.155385"
       viewBox="0 0 5.3244081 6.1553851"
       inkscape:isstock="true"
       inkscape:collect="always"
       preserveAspectRatio="xMidYMid">
      <path
         style="fill:context-stroke;fill-rule:evenodd;stroke:context-stroke;stroke-width:0.5pt"
         d="M 2.885,0 -1.44,2.5 v -5 z"
         id="path135-1-6" />
    </marker>
    <marker
       style="overflow:visible"
       id="TriangleStart-5-2-2"
       refX="2"
       refY="0"
       orient="auto-start-reverse"
       inkscape:stockid="TriangleStart"
       markerWidth="5.3244081"
       markerHeight="6.155385"
       viewBox="0 0 5.3244081 6.1553851"
       inkscape:isstock="true"
       inkscape:collect="always"
       preserveAspectRatio="xMidYMid">
      <path
         transform="scale(0.5)"
         style="fill:context-stroke;fill-rule:evenodd;stroke:context-stroke;stroke-width:1pt"
         d="M 5.77,0 -2.88,5 V -5 Z"
         id="path135-3-7-91" />
    </marker>
    <marker
       style="overflow:visible"
       id="TriangleStart-3"
       refX="2"
       refY="0"
       orient="auto-start-reverse"
       inkscape:stockid="TriangleStart"
       markerWidth="5.3244081"
       markerHeight="6.155385"
       viewBox="0 0 5.3244081 6.1553851"
       inkscape:isstock="true"
       inkscape:collect="always"
       preserveAspectRatio="xMidYMid">
      <path
         style="fill:context-stroke;fill-rule:evenodd;stroke:context-stroke;stroke-width:0.5pt"
         d="M 2.885,0 -1.44,2.5 v -5 z"
         id="path135-6" />
    </marker>
    <marker
       style="overflow:visible"
       id="TriangleStart-5-7"
       refX="2"
       refY="0"
       orient="auto-start-reverse"
       inkscape:stockid="TriangleStart"
       markerWidth="5.3244081"
       markerHeight="6.155385"
       viewBox="0 0 5.3244081 6.1553851"
       inkscape:isstock="true"
       inkscape:collect="always"
       preserveAspectRatio="xMidYMid">
      <path
         transform="scale(0.5)"
         style="fill:context-stroke;fill-rule:evenodd;stroke:context-stroke;stroke-width:1pt"
         d="M 5.77,0 -2.88,5 V -5 Z"
         id="path135-3-5" />
    </marker>
    <marker
       style="overflow:visible"
       id="TriangleStart-9-35-3"
       refX="2"
       refY="0"
       orient="auto-start-reverse"
       inkscape:stockid="TriangleStart"
       markerWidth="5.3244081"
       markerHeight="6.155385"
       viewBox="0 0 5.3244081 6.1553851"
       inkscape:isstock="true"
       inkscape:collect="always"
       preserveAspectRatio="xMidYMid">
      <path
         style="fill:context-stroke;fill-rule:evenodd;stroke:context-stroke;stroke-width:0.5pt"
         d="M 2.885,0 -1.44,2.5 v -5 z"
         id="path135-1-6-5" />
    </marker>
    <marker
       style="overflow:visible"
       id="TriangleStart-5-2-2-6"
       refX="2"
       refY="0"
       orient="auto-start-reverse"
       inkscape:stockid="TriangleStart"
       markerWidth="5.3244081"
       markerHeight="6.155385"
       viewBox="0 0 5.3244081 6.1553851"
       inkscape:isstock="true"
       inkscape:collect="always"
       preserveAspectRatio="xMidYMid">
      <path
         transform="scale(0.5)"
         style="fill:context-stroke;fill-rule:evenodd;stroke:context-stroke;stroke-width:1pt"
         d="M 5.77,0 -2.88,5 V -5 Z"
         id="path135-3-7-91-2" />
    </marker>
  </defs>
  <g
     inkscape:label="Layer 1"
     inkscape:groupmode="layer"
     id="layer1"
     transform="translate(-3.0227706,-83.010849)">
    <rect
       style="fill:#ffffff;fill-opacity:1;stroke:none;stroke-width:1;stroke-opacity:0"
       id="rect9880"
       width="290.92209"
       height="64.895653"
       x="24.944855"
       y="20.89749"
       transform="translate(-21.922084,62.113359)" />
    <rect
       style="fill:none;stroke:#000000;stroke-width:0.5;stroke-dasharray:none"
       id="rect817"
       width="41.884449"
       height="17.007221"
       x="11.70876"
       y="90.599358"
       ry="3.697284" />
    <text
       xml:space="preserve"
       style="font-style:normal;font-weight:normal;font-size:5.64444px;line-height:1.25;font-family:sans-serif;text-align:center;text-anchor:middle;fill:#000000;fill-opacity:1;stroke:none;stroke-width:0.264583"
       x="32.103474"
       y="101.11803"
       id="text925"><tspan
         sodipodi:role="line"
         id="tspan923"
         style="font-size:5.64444px;text-align:center;text-anchor:middle;stroke-width:0.264583"
         x="32.103474"
         y="101.11803">Fonte AC</tspan></text>
    <rect
       style="fill:none;stroke:#000000;stroke-width:0.500001;stroke-dasharray:none"
       id="rect817-3"
       width="49.911663"
       height="17.007221"
       x="159.54317"
       y="90.28019"
       ry="0" />
    <text
       xml:space="preserve"
       style="font-style:normal;font-weight:normal;font-size:5.64444px;line-height:1.25;font-family:sans-serif;text-align:center;text-anchor:middle;fill:#000000;fill-opacity:1;stroke:none;stroke-width:0.264583"
       x="183.95149"
       y="100.79886"
       id="text925-6"><tspan
         sodipodi:role="line"
         style="font-size:5.64444px;text-align:center;text-anchor:middle;stroke-width:0.264583"
         x="183.95149"
         y="100.79886"
         id="tspan2377">Transformador</tspan></text>
    <g
       id="g2442"
       transform="translate(-22.148023,28.677072)">
      <rect
         style="fill:none;stroke:#000000;stroke-width:0.500001;stroke-dasharray:none"
         id="rect817-3-5"
         width="49.911663"
         height="17.007221"
         x="103.84155"
         y="61.4874"
         ry="0" />
      <text
         xml:space="preserve"
         style="font-style:normal;font-weight:normal;font-size:5.64444px;line-height:1.25;font-family:sans-serif;text-align:center;text-anchor:middle;fill:#000000;fill-opacity:1;stroke:none;stroke-width:0.264583"
         x="128.81149"
         y="72.121788"
         id="text925-6-36"><tspan
           sodipodi:role="line"
           style="font-size:5.64444px;text-align:center;text-anchor:middle;stroke-width:0.264583"
           x="128.81149"
           y="72.121788"
           id="tspan2377-7">Protetor</tspan></text>
    </g>
    <path
       style="fill:none;stroke:#000000;stroke-width:0.5;stroke-linecap:butt;stroke-linejoin:miter;stroke-dasharray:none;stroke-opacity:1;marker-end:url(#TriangleStart)"
       d="m 53.593209,94.902649 27.799222,-0.09384"
       id="path1195"
       sodipodi:nodetypes="cc" />
    <path
       style="fill:none;stroke:#000000;stroke-width:0.5;stroke-linecap:butt;stroke-linejoin:miter;stroke-dasharray:none;stroke-opacity:1;marker-end:url(#TriangleStart-5)"
       d="M 81.392431,102.71332 H 53.593209"
       id="path1195-5"
       sodipodi:nodetypes="cc" />
    <rect
       style="fill:none;stroke:#000000;stroke-width:0.5;stroke-dasharray:none"
       id="rect817-5"
       width="41.884449"
       height="17.007221"
       x="11.708759"
       y="123.62994"
       ry="3.697284" />
    <text
       xml:space="preserve"
       style="font-style:normal;font-weight:normal;font-size:5.64444px;line-height:1.25;font-family:sans-serif;text-align:center;text-anchor:middle;fill:#000000;fill-opacity:1;stroke:none;stroke-width:0.264583"
       x="32.10347"
       y="134.14861"
       id="text925-2"><tspan
         sodipodi:role="line"
         id="tspan923-5"
         style="font-size:5.64444px;text-align:center;text-anchor:middle;stroke-width:0.264583"
         x="32.10347"
         y="134.14861">Bateria DC</tspan></text>
    <g
       id="g2384-0"
       transform="translate(152.10045,1.3423924)">
      <rect
         style="fill:none;stroke:#000000;stroke-width:0.500001;stroke-dasharray:none"
         id="rect817-3-9"
         width="49.911663"
         height="17.007221"
         x="85.343437"
         y="88.937798"
         ry="0" />
      <text
         xml:space="preserve"
         style="font-style:normal;font-weight:normal;font-size:5.64444px;line-height:1.25;font-family:sans-serif;text-align:center;text-anchor:middle;fill:#000000;fill-opacity:1;stroke:none;stroke-width:0.264583"
         x="109.75176"
         y="99.456467"
         id="text925-6-3"><tspan
           sodipodi:role="line"
           style="font-size:5.64444px;text-align:center;text-anchor:middle;stroke-width:0.264583"
           x="109.75176"
           y="99.456467"
           id="tspan2377-6">Retificador</tspan></text>
    </g>
    <g
       id="g2168"
       transform="translate(77.881959)">
      <path
         style="fill:none;stroke:#000000;stroke-width:0.5;stroke-linecap:butt;stroke-linejoin:miter;stroke-dasharray:none;stroke-opacity:1;marker-end:url(#TriangleStart-9)"
         d="m 131.49393,94.902649 27.79923,-0.09384"
         id="path1195-0"
         sodipodi:nodetypes="cc" />
      <path
         style="fill:none;stroke:#000000;stroke-width:0.5;stroke-linecap:butt;stroke-linejoin:miter;stroke-dasharray:none;stroke-opacity:1;marker-end:url(#TriangleStart-5-2)"
         d="M 159.29316,102.71332 H 131.49393"
         id="path1195-5-6"
         sodipodi:nodetypes="cc" />
    </g>
    <g
       id="g2168-2">
      <path
         style="fill:none;stroke:#000000;stroke-width:0.5;stroke-linecap:butt;stroke-linejoin:miter;stroke-dasharray:none;stroke-opacity:1;marker-end:url(#TriangleStart-9-35)"
         d="m 131.49393,94.902649 27.79923,-0.09384"
         id="path1195-0-7"
         sodipodi:nodetypes="cc" />
      <path
         style="fill:none;stroke:#000000;stroke-width:0.5;stroke-linecap:butt;stroke-linejoin:miter;stroke-dasharray:none;stroke-opacity:1;marker-end:url(#TriangleStart-5-2-2)"
         d="M 159.29316,102.71332 H 131.49393"
         id="path1195-5-6-0"
         sodipodi:nodetypes="cc" />
    </g>
    <g
       id="g2442-9"
       transform="translate(-21.922084,62.113359)">
      <rect
         style="fill:none;stroke:#000000;stroke-width:0.500001;stroke-dasharray:none"
         id="rect817-3-5-1"
         width="49.911663"
         height="17.007221"
         x="103.84155"
         y="61.4874"
         ry="0" />
      <text
         xml:space="preserve"
         style="font-style:normal;font-weight:normal;font-size:5.64444px;line-height:1.25;font-family:sans-serif;text-align:center;text-anchor:middle;fill:#000000;fill-opacity:1;stroke:none;stroke-width:0.264583"
         x="128.81149"
         y="72.121788"
         id="text925-6-36-2"><tspan
           sodipodi:role="line"
           style="font-size:5.64444px;text-align:center;text-anchor:middle;stroke-width:0.264583"
           x="128.81149"
           y="72.121788"
           id="tspan2377-7-7">Indicador</tspan></text>
    </g>
    <path
       style="fill:none;stroke:#000000;stroke-width:0.5;stroke-linecap:butt;stroke-linejoin:miter;stroke-dasharray:none;stroke-opacity:1;marker-end:url(#TriangleStart-3)"
       d="m 53.819148,128.33894 27.799222,-0.0938"
       id="path1195-09"
       sodipodi:nodetypes="cc" />
    <path
       style="fill:none;stroke:#000000;stroke-width:0.5;stroke-linecap:butt;stroke-linejoin:miter;stroke-dasharray:none;stroke-opacity:1;marker-end:url(#TriangleStart-5-7)"
       d="M 81.61837,136.14961 H 53.819148"
       id="path1195-5-3"
       sodipodi:nodetypes="cc" />
    <g
       id="g2168-2-6"
       transform="translate(0.22593912,33.436287)">
      <path
         style="fill:none;stroke:#000000;stroke-width:0.5;stroke-linecap:butt;stroke-linejoin:miter;stroke-dasharray:none;stroke-opacity:1;marker-end:url(#TriangleStart-9-35-3)"
         d="m 131.49393,94.902649 27.79923,-0.09384"
         id="path1195-0-7-0"
         sodipodi:nodetypes="cc" />
      <path
         style="fill:none;stroke:#000000;stroke-width:0.5;stroke-linecap:butt;stroke-linejoin:miter;stroke-dasharray:none;stroke-opacity:1;marker-end:url(#TriangleStart-5-2-2-6)"
         d="M 159.29316,102.71332 H 131.49393"
         id="path1195-5-6-0-6"
         sodipodi:nodetypes="cc" />
    </g>
    <g
       id="g2384-0-4"
       transform="translate(152.10045,34.474584)">
      <rect
         style="fill:none;stroke:#000000;stroke-width:0.500001;stroke-dasharray:none"
         id="rect817-3-9-78"
         width="49.911663"
         height="17.007221"
         x="85.343437"
         y="88.937798"
         ry="0" />
      <text
         xml:space="preserve"
         style="font-style:normal;font-weight:normal;font-size:5.64444px;line-height:1.25;font-family:sans-serif;text-align:center;text-anchor:middle;fill:#000000;fill-opacity:1;stroke:none;stroke-width:0.264583"
         x="109.75176"
         y="99.456467"
         id="text925-6-3-4"><tspan
           sodipodi:role="line"
           style="font-size:5.64444px;text-align:center;text-anchor:middle;stroke-width:0.264583"
           x="109.75176"
           y="99.456467"
           id="tspan3214">Filtro</tspan></text>
    </g>
    <text
       xml:space="preserve"
       style="font-style:normal;font-weight:normal;font-size:5.64444px;line-height:1.25;font-family:sans-serif;text-align:end;text-anchor:end;fill:#000000;fill-opacity:1;stroke:none;stroke-width:0.264583"
       x="78.417923"
       y="92.176132"
       id="text1468"><tspan
         sodipodi:role="line"
         id="tspan1466"
         style="font-size:5.64444px;text-align:end;text-anchor:end;stroke-width:0.264583"
         x="78.417923"
         y="92.176132">Live</tspan></text>
    <text
       xml:space="preserve"
       style="font-style:normal;font-weight:normal;font-size:5.64444px;line-height:1.25;font-family:sans-serif;text-align:end;text-anchor:end;fill:#000000;fill-opacity:1;stroke:none;stroke-width:0.264583"
       x="78.609833"
       y="109.90833"
       id="text1468-6"><tspan
         sodipodi:role="line"
         id="tspan1466-2"
         style="font-size:5.64444px;text-align:end;text-anchor:end;stroke-width:0.264583"
         x="78.609833"
         y="109.90833">Neutral</tspan></text>
    <text
       xml:space="preserve"
       style="font-style:normal;font-weight:normal;font-size:5.64444px;line-height:1.25;font-family:sans-serif;fill:#000000;fill-opacity:1;stroke:none;stroke-width:0.264583"
       x="215.0504"
       y="92.08194"
       id="text1468-3"><tspan
         sodipodi:role="line"
         id="tspan1466-6"
         style="font-size:5.64444px;stroke-width:0.264583"
         x="215.0504"
         y="92.08194">+</tspan></text>
    <g
       id="g2384-3"
       transform="translate(74.199722,34.372977)">
      <rect
         style="fill:none;stroke:#000000;stroke-width:0.500001;stroke-dasharray:none"
         id="rect817-3-2"
         width="49.911663"
         height="17.007221"
         x="85.343437"
         y="88.937798"
         ry="0" />
      <text
         xml:space="preserve"
         style="font-style:normal;font-weight:normal;font-size:5.64444px;line-height:1.25;font-family:sans-serif;text-align:center;text-anchor:middle;fill:#000000;fill-opacity:1;stroke:none;stroke-width:0.264583"
         x="109.75176"
         y="99.456467"
         id="text925-6-0"><tspan
           sodipodi:role="line"
           style="font-size:5.64444px;text-align:center;text-anchor:middle;stroke-width:0.264583"
           x="109.75176"
           y="99.456467"
           id="tspan2377-61">Regulador</tspan></text>
    </g>
    <path
       style="fill:none;stroke:#000000;stroke-width:0.5;stroke-linecap:butt;stroke-linejoin:miter;stroke-dasharray:none;stroke-opacity:1;marker-end:url(#TriangleStart-9-6)"
       d="m 237.17511,127.83944 -27.79923,0.0938"
       id="path1195-0-5"
       sodipodi:nodetypes="cc" />
    <path
       style="fill:none;stroke:#000000;stroke-width:0.5;stroke-linecap:butt;stroke-linejoin:miter;stroke-dasharray:none;stroke-opacity:1;marker-end:url(#TriangleStart-5-2-0)"
       d="m 209.37588,135.7439 h 27.79923"
       id="path1195-5-6-5"
       sodipodi:nodetypes="cc" />
    <path
       style="fill:none;stroke:#000000;stroke-width:0.5;stroke-linecap:butt;stroke-linejoin:miter;stroke-dasharray:none;stroke-opacity:1;marker-end:url(#TriangleStart-9-3)"
       d="m 265.71182,107.00226 0.0938,16.49207"
       id="path1195-0-9"
       sodipodi:nodetypes="cc" />
    <path
       style="fill:none;stroke:#000000;stroke-width:0.5;stroke-linecap:butt;stroke-linejoin:miter;stroke-dasharray:none;stroke-opacity:1;marker-end:url(#TriangleStart-5-2-5)"
       d="M 257.90115,123.49433 V 107.00226"
       id="path1195-5-6-7"
       sodipodi:nodetypes="cc" />
    <ellipse
       style="fill:none;stroke:#000000;stroke-width:0.499999;stroke-dasharray:none"
       id="path3797"
       cx="216.65907"
       cy="90.089455"
       rx="3.2624018"
       ry="3.1868877" />
    <g
       id="g4418"
       transform="translate(77.881959,-1.5875)">
      <text
         xml:space="preserve"
         style="font-style:normal;font-weight:normal;font-size:5.64444px;line-height:1.25;font-family:sans-serif;fill:#000000;fill-opacity:1;stroke:none;stroke-width:0.264583"
         x="137.86836"
         y="110.79906"
         id="text1468-6-1"><tspan
           sodipodi:role="line"
           id="tspan1466-2-2"
           style="font-size:5.64444px;stroke-width:0.264583"
           x="137.86836"
           y="110.79906">-</tspan></text>
      <ellipse
         style="fill:none;stroke:#000000;stroke-width:0.499999;stroke-dasharray:none"
         id="path3797-4"
         cx="138.77711"
         cy="109.28635"
         rx="3.2624018"
         ry="3.1868877" />
    </g>
  </g>
</svg>
