(kicad_sch (version 20230121) (generator eeschema)

  (uuid 83942185-8788-4573-9806-c723a0db36ce)

  (paper "A5")

  (title_block
    (title "Fonte de tensão")
    (date "2023-05-28")
    (company "ICMC-USP")
    (comment 1 "Disciplina: SSC0180 - Eletrônica para Computação")
  )

  (lib_symbols
    (symbol "Conn_01x02_Pin_1" (pin_names (offset 1.016) hide) (in_bom yes) (on_board yes)
      (property "Reference" "AC1" (at -2.54 0 0)
        (effects (font (size 1.27 1.27)) (justify right))
      )
      (property "Value" "Conn_01x02_Pin" (at -2.54 -2.54 0)
        (effects (font (size 1.27 1.27)) (justify right))
      )
      (property "Footprint" "Connector_PinHeader_2.00mm:PinHeader_1x02_P2.00mm_Vertical" (at 0 -6.35 0)
        (effects (font (size 1.27 1.27)) hide)
      )
      (property "Datasheet" "~" (at 0 -1.27 0)
        (effects (font (size 1.27 1.27)) hide)
      )
      (property "ki_locked" "" (at 0 0 0)
        (effects (font (size 1.27 1.27)))
      )
      (property "ki_keywords" "connector" (at 0 0 0)
        (effects (font (size 1.27 1.27)) hide)
      )
      (property "ki_description" "Generic connector, single row, 01x02, script generated" (at 0 0 0)
        (effects (font (size 1.27 1.27)) hide)
      )
      (property "ki_fp_filters" "Connector*:*_1x??_*" (at 0 0 0)
        (effects (font (size 1.27 1.27)) hide)
      )
      (symbol "Conn_01x02_Pin_1_1_1"
        (polyline
          (pts
            (xy 1.27 -2.54)
            (xy 0.8636 -2.54)
          )
          (stroke (width 0.1524) (type default))
          (fill (type none))
        )
        (polyline
          (pts
            (xy 1.27 0)
            (xy 0.8636 0)
          )
          (stroke (width 0.1524) (type default))
          (fill (type none))
        )
        (rectangle (start 0.8636 -2.413) (end 0 -2.667)
          (stroke (width 0.1524) (type default))
          (fill (type outline))
        )
        (rectangle (start 0.8636 0.127) (end 0 -0.127)
          (stroke (width 0.1524) (type default))
          (fill (type outline))
        )
        (pin passive line (at 5.08 0 180) (length 3.81)
          (name "Pin_1" (effects (font (size 1.27 1.27))))
          (number "1" (effects (font (size 1.27 1.27))))
        )
        (pin passive line (at 5.08 -2.54 180) (length 3.81)
          (name "Pin_2" (effects (font (size 1.27 1.27))))
          (number "2" (effects (font (size 1.27 1.27))))
        )
      )
    )
    (symbol "Connector:Conn_01x02_Pin" (pin_names (offset 1.016) hide) (in_bom yes) (on_board yes)
      (property "Reference" "J" (at 0 2.54 0)
        (effects (font (size 1.27 1.27)))
      )
      (property "Value" "Conn_01x02_Pin" (at 0 -5.08 0)
        (effects (font (size 1.27 1.27)))
      )
      (property "Footprint" "" (at 0 0 0)
        (effects (font (size 1.27 1.27)) hide)
      )
      (property "Datasheet" "~" (at 0 0 0)
        (effects (font (size 1.27 1.27)) hide)
      )
      (property "ki_locked" "" (at 0 0 0)
        (effects (font (size 1.27 1.27)))
      )
      (property "ki_keywords" "connector" (at 0 0 0)
        (effects (font (size 1.27 1.27)) hide)
      )
      (property "ki_description" "Generic connector, single row, 01x02, script generated" (at 0 0 0)
        (effects (font (size 1.27 1.27)) hide)
      )
      (property "ki_fp_filters" "Connector*:*_1x??_*" (at 0 0 0)
        (effects (font (size 1.27 1.27)) hide)
      )
      (symbol "Conn_01x02_Pin_1_1"
        (polyline
          (pts
            (xy 1.27 -2.54)
            (xy 0.8636 -2.54)
          )
          (stroke (width 0.1524) (type default))
          (fill (type none))
        )
        (polyline
          (pts
            (xy 1.27 0)
            (xy 0.8636 0)
          )
          (stroke (width 0.1524) (type default))
          (fill (type none))
        )
        (rectangle (start 0.8636 -2.413) (end 0 -2.667)
          (stroke (width 0.1524) (type default))
          (fill (type outline))
        )
        (rectangle (start 0.8636 0.127) (end 0 -0.127)
          (stroke (width 0.1524) (type default))
          (fill (type outline))
        )
        (pin passive line (at 5.08 0 180) (length 3.81)
          (name "Pin_1" (effects (font (size 1.27 1.27))))
          (number "1" (effects (font (size 1.27 1.27))))
        )
        (pin passive line (at 5.08 -2.54 180) (length 3.81)
          (name "Pin_2" (effects (font (size 1.27 1.27))))
          (number "2" (effects (font (size 1.27 1.27))))
        )
      )
    )
    (symbol "Converter_ACDC:IRM-02-3.3" (in_bom yes) (on_board yes)
      (property "Reference" "PS" (at 0 5.08 0)
        (effects (font (size 1.27 1.27)))
      )
      (property "Value" "IRM-02-3.3" (at 0 -5.08 0)
        (effects (font (size 1.27 1.27)))
      )
      (property "Footprint" "Converter_ACDC:Converter_ACDC_MeanWell_IRM-02-xx_THT" (at 0 -7.62 0)
        (effects (font (size 1.27 1.27)) hide)
      )
      (property "Datasheet" "https://www.meanwell.com/Upload/PDF/IRM-02/IRM-02-SPEC.PDF" (at 10.16 -8.89 0)
        (effects (font (size 1.27 1.27)) hide)
      )
      (property "ki_keywords" "Miniature Module-type Power Supply MeanWell" (at 0 0 0)
        (effects (font (size 1.27 1.27)) hide)
      )
      (property "ki_description" "3.3V, 600mA, 2W, Isolated, AC-DC, IRM02" (at 0 0 0)
        (effects (font (size 1.27 1.27)) hide)
      )
      (property "ki_fp_filters" "Converter*ACDC*MeanWell*IRM*02*THT*" (at 0 0 0)
        (effects (font (size 1.27 1.27)) hide)
      )
      (symbol "IRM-02-3.3_0_1"
        (rectangle (start -7.62 3.81) (end 7.62 -3.81)
          (stroke (width 0.254) (type default))
          (fill (type background))
        )
        (arc (start -5.334 0.635) (mid -4.699 0.2495) (end -4.064 0.635)
          (stroke (width 0) (type default))
          (fill (type none))
        )
        (arc (start -2.794 0.635) (mid -3.429 1.0072) (end -4.064 0.635)
          (stroke (width 0) (type default))
          (fill (type none))
        )
        (polyline
          (pts
            (xy -5.334 -0.635)
            (xy -2.794 -0.635)
          )
          (stroke (width 0) (type default))
          (fill (type none))
        )
        (polyline
          (pts
            (xy 2.794 -0.635)
            (xy 5.334 -0.635)
          )
          (stroke (width 0) (type default))
          (fill (type none))
        )
        (polyline
          (pts
            (xy 2.794 0.635)
            (xy 3.302 0.635)
          )
          (stroke (width 0) (type default))
          (fill (type none))
        )
        (polyline
          (pts
            (xy 3.81 0.635)
            (xy 4.318 0.635)
          )
          (stroke (width 0) (type default))
          (fill (type none))
        )
        (polyline
          (pts
            (xy 4.826 0.635)
            (xy 5.334 0.635)
          )
          (stroke (width 0) (type default))
          (fill (type none))
        )
      )
      (symbol "IRM-02-3.3_1_1"
        (polyline
          (pts
            (xy 0 -1.27)
            (xy 0 -2.54)
          )
          (stroke (width 0) (type default))
          (fill (type none))
        )
        (polyline
          (pts
            (xy 0 1.27)
            (xy 0 0)
          )
          (stroke (width 0) (type default))
          (fill (type none))
        )
        (polyline
          (pts
            (xy 0 3.81)
            (xy 0 2.54)
          )
          (stroke (width 0) (type default))
          (fill (type none))
        )
        (pin power_in line (at -10.16 -2.54 0) (length 2.54)
          (name "AC/N" (effects (font (size 1.27 1.27))))
          (number "1" (effects (font (size 1.27 1.27))))
        )
        (pin power_in line (at -10.16 2.54 0) (length 2.54)
          (name "AC/L" (effects (font (size 1.27 1.27))))
          (number "2" (effects (font (size 1.27 1.27))))
        )
        (pin power_out line (at 10.16 -2.54 180) (length 2.54)
          (name "-Vo" (effects (font (size 1.27 1.27))))
          (number "3" (effects (font (size 1.27 1.27))))
        )
        (pin power_out line (at 10.16 2.54 180) (length 2.54)
          (name "+Vo" (effects (font (size 1.27 1.27))))
          (number "4" (effects (font (size 1.27 1.27))))
        )
      )
    )
    (symbol "Device:C_Polarized_Small_US" (pin_numbers hide) (pin_names (offset 0.254) hide) (in_bom yes) (on_board yes)
      (property "Reference" "C" (at 0.254 1.778 0)
        (effects (font (size 1.27 1.27)) (justify left))
      )
      (property "Value" "C_Polarized_Small_US" (at 0.254 -2.032 0)
        (effects (font (size 1.27 1.27)) (justify left))
      )
      (property "Footprint" "" (at 0 0 0)
        (effects (font (size 1.27 1.27)) hide)
      )
      (property "Datasheet" "~" (at 0 0 0)
        (effects (font (size 1.27 1.27)) hide)
      )
      (property "ki_keywords" "cap capacitor" (at 0 0 0)
        (effects (font (size 1.27 1.27)) hide)
      )
      (property "ki_description" "Polarized capacitor, small US symbol" (at 0 0 0)
        (effects (font (size 1.27 1.27)) hide)
      )
      (property "ki_fp_filters" "CP_*" (at 0 0 0)
        (effects (font (size 1.27 1.27)) hide)
      )
      (symbol "C_Polarized_Small_US_0_1"
        (polyline
          (pts
            (xy -1.524 0.508)
            (xy 1.524 0.508)
          )
          (stroke (width 0.3048) (type default))
          (fill (type none))
        )
        (polyline
          (pts
            (xy -1.27 1.524)
            (xy -0.762 1.524)
          )
          (stroke (width 0) (type default))
          (fill (type none))
        )
        (polyline
          (pts
            (xy -1.016 1.27)
            (xy -1.016 1.778)
          )
          (stroke (width 0) (type default))
          (fill (type none))
        )
        (arc (start 1.524 -0.762) (mid 0 -0.3734) (end -1.524 -0.762)
          (stroke (width 0.3048) (type default))
          (fill (type none))
        )
      )
      (symbol "C_Polarized_Small_US_1_1"
        (pin passive line (at 0 2.54 270) (length 2.032)
          (name "~" (effects (font (size 1.27 1.27))))
          (number "1" (effects (font (size 1.27 1.27))))
        )
        (pin passive line (at 0 -2.54 90) (length 2.032)
          (name "~" (effects (font (size 1.27 1.27))))
          (number "2" (effects (font (size 1.27 1.27))))
        )
      )
    )
    (symbol "Device:D_Zener" (pin_numbers hide) (pin_names (offset 1.016) hide) (in_bom yes) (on_board yes)
      (property "Reference" "D2" (at 4.445 1.905 0)
        (effects (font (size 1.27 1.27)) (justify right))
      )
      (property "Value" "D_Zener" (at 4.445 -0.635 0)
        (effects (font (size 1.27 1.27)) (justify right))
      )
      (property "Footprint" "Diode_THT:D_5KPW_P12.70mm_Horizontal" (at 1.27 0 0)
        (effects (font (size 1.27 1.27)) hide)
      )
      (property "Datasheet" "~" (at 1.27 0 90)
        (effects (font (size 1.27 1.27)) hide)
      )
      (property "Breakdown Voltage" "13 V" (at 4.445 -3.175 0)
        (effects (font (size 1.27 1.27)) (justify right))
      )
      (property "ki_keywords" "diode" (at 0 0 0)
        (effects (font (size 1.27 1.27)) hide)
      )
      (property "ki_description" "Zener diode" (at 0 0 0)
        (effects (font (size 1.27 1.27)) hide)
      )
      (property "ki_fp_filters" "TO-???* *_Diode_* *SingleDiode* D_*" (at 0 0 0)
        (effects (font (size 1.27 1.27)) hide)
      )
      (symbol "D_Zener_0_1"
        (polyline
          (pts
            (xy 0 -1.27)
            (xy 0 1.27)
          )
          (stroke (width 0) (type default))
          (fill (type none))
        )
        (polyline
          (pts
            (xy -1.27 1.27)
            (xy 1.27 1.27)
            (xy 1.27 0.762)
          )
          (stroke (width 0.254) (type default))
          (fill (type none))
        )
        (polyline
          (pts
            (xy -1.27 -1.27)
            (xy 1.27 -1.27)
            (xy 0 1.27)
            (xy -1.27 -1.27)
          )
          (stroke (width 0.254) (type default))
          (fill (type none))
        )
      )
      (symbol "D_Zener_1_1"
        (pin passive line (at 0 3.81 270) (length 2.54)
          (name "K" (effects (font (size 1.27 1.27))))
          (number "1" (effects (font (size 1.27 1.27))))
        )
        (pin passive line (at 0 -3.81 90) (length 2.54)
          (name "A" (effects (font (size 1.27 1.27))))
          (number "2" (effects (font (size 1.27 1.27))))
        )
      )
    )
    (symbol "Device:Fuse" (pin_numbers hide) (pin_names (offset 0)) (in_bom yes) (on_board yes)
      (property "Reference" "F" (at 2.032 0 90)
        (effects (font (size 1.27 1.27)))
      )
      (property "Value" "Fuse" (at -1.905 0 90)
        (effects (font (size 1.27 1.27)))
      )
      (property "Footprint" "" (at -1.778 0 90)
        (effects (font (size 1.27 1.27)) hide)
      )
      (property "Datasheet" "~" (at 0 0 0)
        (effects (font (size 1.27 1.27)) hide)
      )
      (property "ki_keywords" "fuse" (at 0 0 0)
        (effects (font (size 1.27 1.27)) hide)
      )
      (property "ki_description" "Fuse" (at 0 0 0)
        (effects (font (size 1.27 1.27)) hide)
      )
      (property "ki_fp_filters" "*Fuse*" (at 0 0 0)
        (effects (font (size 1.27 1.27)) hide)
      )
      (symbol "Fuse_0_1"
        (rectangle (start -0.762 -2.54) (end 0.762 2.54)
          (stroke (width 0.254) (type default))
          (fill (type none))
        )
        (polyline
          (pts
            (xy 0 2.54)
            (xy 0 -2.54)
          )
          (stroke (width 0) (type default))
          (fill (type none))
        )
      )
      (symbol "Fuse_1_1"
        (pin passive line (at 0 3.81 270) (length 1.27)
          (name "~" (effects (font (size 1.27 1.27))))
          (number "1" (effects (font (size 1.27 1.27))))
        )
        (pin passive line (at 0 -3.81 90) (length 1.27)
          (name "~" (effects (font (size 1.27 1.27))))
          (number "2" (effects (font (size 1.27 1.27))))
        )
      )
    )
    (symbol "Device:LED" (pin_numbers hide) (pin_names (offset 1.016) hide) (in_bom yes) (on_board yes)
      (property "Reference" "D" (at 0 2.54 0)
        (effects (font (size 1.27 1.27)))
      )
      (property "Value" "LED" (at 0 -2.54 0)
        (effects (font (size 1.27 1.27)))
      )
      (property "Footprint" "" (at 0 0 0)
        (effects (font (size 1.27 1.27)) hide)
      )
      (property "Datasheet" "~" (at 0 0 0)
        (effects (font (size 1.27 1.27)) hide)
      )
      (property "ki_keywords" "LED diode" (at 0 0 0)
        (effects (font (size 1.27 1.27)) hide)
      )
      (property "ki_description" "Light emitting diode" (at 0 0 0)
        (effects (font (size 1.27 1.27)) hide)
      )
      (property "ki_fp_filters" "LED* LED_SMD:* LED_THT:*" (at 0 0 0)
        (effects (font (size 1.27 1.27)) hide)
      )
      (symbol "LED_0_1"
        (polyline
          (pts
            (xy -1.27 -1.27)
            (xy -1.27 1.27)
          )
          (stroke (width 0.254) (type default))
          (fill (type none))
        )
        (polyline
          (pts
            (xy -1.27 0)
            (xy 1.27 0)
          )
          (stroke (width 0) (type default))
          (fill (type none))
        )
        (polyline
          (pts
            (xy 1.27 -1.27)
            (xy 1.27 1.27)
            (xy -1.27 0)
            (xy 1.27 -1.27)
          )
          (stroke (width 0.254) (type default))
          (fill (type none))
        )
        (polyline
          (pts
            (xy -3.048 -0.762)
            (xy -4.572 -2.286)
            (xy -3.81 -2.286)
            (xy -4.572 -2.286)
            (xy -4.572 -1.524)
          )
          (stroke (width 0) (type default))
          (fill (type none))
        )
        (polyline
          (pts
            (xy -1.778 -0.762)
            (xy -3.302 -2.286)
            (xy -2.54 -2.286)
            (xy -3.302 -2.286)
            (xy -3.302 -1.524)
          )
          (stroke (width 0) (type default))
          (fill (type none))
        )
      )
      (symbol "LED_1_1"
        (pin passive line (at -3.81 0 0) (length 2.54)
          (name "K" (effects (font (size 1.27 1.27))))
          (number "1" (effects (font (size 1.27 1.27))))
        )
        (pin passive line (at 3.81 0 180) (length 2.54)
          (name "A" (effects (font (size 1.27 1.27))))
          (number "2" (effects (font (size 1.27 1.27))))
        )
      )
    )
    (symbol "Device:R_Potentiometer_US" (pin_names (offset 1.016) hide) (in_bom yes) (on_board yes)
      (property "Reference" "RV1" (at -3.81 -1.27 0)
        (effects (font (size 1.27 1.27)) (justify right))
      )
      (property "Value" "10 kΩ" (at -3.81 1.27 0)
        (effects (font (size 1.27 1.27)) (justify right))
      )
      (property "Footprint" "Potentiometer_THT:Potentiometer_Bourns_3339P_Vertical_HandSoldering" (at 0 0 0)
        (effects (font (size 1.27 1.27)) hide)
      )
      (property "Datasheet" "~" (at 0 0 0)
        (effects (font (size 1.27 1.27)) hide)
      )
      (property "ki_keywords" "resistor variable" (at 0 0 0)
        (effects (font (size 1.27 1.27)) hide)
      )
      (property "ki_description" "Potentiometer, US symbol" (at 0 0 0)
        (effects (font (size 1.27 1.27)) hide)
      )
      (property "ki_fp_filters" "Potentiometer*" (at 0 0 0)
        (effects (font (size 1.27 1.27)) hide)
      )
      (symbol "R_Potentiometer_US_0_1"
        (polyline
          (pts
            (xy 0 -2.286)
            (xy 0 -2.54)
          )
          (stroke (width 0) (type default))
          (fill (type none))
        )
        (polyline
          (pts
            (xy 0 2.54)
            (xy 0 2.286)
          )
          (stroke (width 0) (type default))
          (fill (type none))
        )
        (polyline
          (pts
            (xy 2.54 0)
            (xy 1.524 0)
          )
          (stroke (width 0) (type default))
          (fill (type none))
        )
        (polyline
          (pts
            (xy 1.143 0)
            (xy 2.286 0.508)
            (xy 2.286 -0.508)
            (xy 1.143 0)
          )
          (stroke (width 0) (type default))
          (fill (type outline))
        )
        (polyline
          (pts
            (xy 0 -0.762)
            (xy 1.016 -1.143)
            (xy 0 -1.524)
            (xy -1.016 -1.905)
            (xy 0 -2.286)
          )
          (stroke (width 0) (type default))
          (fill (type none))
        )
        (polyline
          (pts
            (xy 0 0.762)
            (xy 1.016 0.381)
            (xy 0 0)
            (xy -1.016 -0.381)
            (xy 0 -0.762)
          )
          (stroke (width 0) (type default))
          (fill (type none))
        )
        (polyline
          (pts
            (xy 0 2.286)
            (xy 1.016 1.905)
            (xy 0 1.524)
            (xy -1.016 1.143)
            (xy 0 0.762)
          )
          (stroke (width 0) (type default))
          (fill (type none))
        )
      )
      (symbol "R_Potentiometer_US_1_1"
        (pin passive line (at 0 3.81 270) (length 1.27)
          (name "1" (effects (font (size 1.27 1.27))))
          (number "1" (effects (font (size 1.27 1.27))))
        )
        (pin passive line (at 3.81 0 180) (length 1.27)
          (name "2" (effects (font (size 1.27 1.27))))
          (number "2" (effects (font (size 1.27 1.27))))
        )
        (pin passive line (at 0 -3.81 90) (length 1.27)
          (name "3" (effects (font (size 1.27 1.27))))
          (number "3" (effects (font (size 1.27 1.27))))
        )
      )
    )
    (symbol "Device:R_Small_US" (pin_numbers hide) (pin_names (offset 0.254) hide) (in_bom yes) (on_board yes)
      (property "Reference" "R" (at 0.762 0.508 0)
        (effects (font (size 1.27 1.27)) (justify left))
      )
      (property "Value" "R_Small_US" (at 0.762 -1.016 0)
        (effects (font (size 1.27 1.27)) (justify left))
      )
      (property "Footprint" "" (at 0 0 0)
        (effects (font (size 1.27 1.27)) hide)
      )
      (property "Datasheet" "~" (at 0 0 0)
        (effects (font (size 1.27 1.27)) hide)
      )
      (property "ki_keywords" "r resistor" (at 0 0 0)
        (effects (font (size 1.27 1.27)) hide)
      )
      (property "ki_description" "Resistor, small US symbol" (at 0 0 0)
        (effects (font (size 1.27 1.27)) hide)
      )
      (property "ki_fp_filters" "R_*" (at 0 0 0)
        (effects (font (size 1.27 1.27)) hide)
      )
      (symbol "R_Small_US_1_1"
        (polyline
          (pts
            (xy 0 0)
            (xy 1.016 -0.381)
            (xy 0 -0.762)
            (xy -1.016 -1.143)
            (xy 0 -1.524)
          )
          (stroke (width 0) (type default))
          (fill (type none))
        )
        (polyline
          (pts
            (xy 0 1.524)
            (xy 1.016 1.143)
            (xy 0 0.762)
            (xy -1.016 0.381)
            (xy 0 0)
          )
          (stroke (width 0) (type default))
          (fill (type none))
        )
        (pin passive line (at 0 2.54 270) (length 1.016)
          (name "~" (effects (font (size 1.27 1.27))))
          (number "1" (effects (font (size 1.27 1.27))))
        )
        (pin passive line (at 0 -2.54 90) (length 1.016)
          (name "~" (effects (font (size 1.27 1.27))))
          (number "2" (effects (font (size 1.27 1.27))))
        )
      )
    )
    (symbol "Diode_Bridge:ABS2" (pin_names (offset 0)) (in_bom yes) (on_board yes)
      (property "Reference" "D" (at 2.54 6.985 0)
        (effects (font (size 1.27 1.27)) (justify left))
      )
      (property "Value" "ABS2" (at 2.54 5.08 0)
        (effects (font (size 1.27 1.27)) (justify left))
      )
      (property "Footprint" "Diode_SMD:Diode_Bridge_Diotec_ABS" (at 3.81 3.175 0)
        (effects (font (size 1.27 1.27)) (justify left) hide)
      )
      (property "Datasheet" "https://diotec.com/tl_files/diotec/files/pdf/datasheets/abs2.pdf" (at 0 0 0)
        (effects (font (size 1.27 1.27)) hide)
      )
      (property "ki_keywords" "rectifier acdc" (at 0 0 0)
        (effects (font (size 1.27 1.27)) hide)
      )
      (property "ki_description" "Miniature Glass Passivated Single-Phase Surface Mount Bridge Rectifiers, 140V Vrms, 0.8A If, ABS SMD package" (at 0 0 0)
        (effects (font (size 1.27 1.27)) hide)
      )
      (property "ki_fp_filters" "Diode*Bridge*Diotec*ABS*" (at 0 0 0)
        (effects (font (size 1.27 1.27)) hide)
      )
      (symbol "ABS2_0_1"
        (polyline
          (pts
            (xy -2.54 3.81)
            (xy -1.27 2.54)
          )
          (stroke (width 0) (type default))
          (fill (type none))
        )
        (polyline
          (pts
            (xy -1.27 -2.54)
            (xy -2.54 -3.81)
          )
          (stroke (width 0) (type default))
          (fill (type none))
        )
        (polyline
          (pts
            (xy 2.54 -1.27)
            (xy 3.81 -2.54)
          )
          (stroke (width 0) (type default))
          (fill (type none))
        )
        (polyline
          (pts
            (xy 2.54 1.27)
            (xy 3.81 2.54)
          )
          (stroke (width 0) (type default))
          (fill (type none))
        )
        (polyline
          (pts
            (xy -3.81 2.54)
            (xy -2.54 1.27)
            (xy -1.905 3.175)
            (xy -3.81 2.54)
          )
          (stroke (width 0) (type default))
          (fill (type none))
        )
        (polyline
          (pts
            (xy -2.54 -1.27)
            (xy -3.81 -2.54)
            (xy -1.905 -3.175)
            (xy -2.54 -1.27)
          )
          (stroke (width 0) (type default))
          (fill (type none))
        )
        (polyline
          (pts
            (xy 1.27 2.54)
            (xy 2.54 3.81)
            (xy 3.175 1.905)
            (xy 1.27 2.54)
          )
          (stroke (width 0) (type default))
          (fill (type none))
        )
        (polyline
          (pts
            (xy 3.175 -1.905)
            (xy 1.27 -2.54)
            (xy 2.54 -3.81)
            (xy 3.175 -1.905)
          )
          (stroke (width 0) (type default))
          (fill (type none))
        )
        (polyline
          (pts
            (xy -5.08 0)
            (xy 0 -5.08)
            (xy 5.08 0)
            (xy 0 5.08)
            (xy -5.08 0)
          )
          (stroke (width 0) (type default))
          (fill (type none))
        )
      )
      (symbol "ABS2_1_1"
        (pin passive line (at 7.62 0 180) (length 2.54)
          (name "+" (effects (font (size 1.27 1.27))))
          (number "1" (effects (font (size 1.27 1.27))))
        )
        (pin passive line (at -7.62 0 0) (length 2.54)
          (name "-" (effects (font (size 1.27 1.27))))
          (number "2" (effects (font (size 1.27 1.27))))
        )
        (pin passive line (at 0 -7.62 90) (length 2.54)
          (name "~" (effects (font (size 1.27 1.27))))
          (number "3" (effects (font (size 1.27 1.27))))
        )
        (pin passive line (at 0 7.62 270) (length 2.54)
          (name "~" (effects (font (size 1.27 1.27))))
          (number "4" (effects (font (size 1.27 1.27))))
        )
      )
    )
    (symbol "Simulation_SPICE:NPN" (pin_numbers hide) (pin_names (offset 0)) (in_bom yes) (on_board yes)
      (property "Reference" "Q" (at -2.54 7.62 0)
        (effects (font (size 1.27 1.27)))
      )
      (property "Value" "NPN" (at -2.54 5.08 0)
        (effects (font (size 1.27 1.27)))
      )
      (property "Footprint" "" (at 63.5 0 0)
        (effects (font (size 1.27 1.27)) hide)
      )
      (property "Datasheet" "~" (at 63.5 0 0)
        (effects (font (size 1.27 1.27)) hide)
      )
      (property "Sim.Device" "NPN" (at 0 0 0)
        (effects (font (size 1.27 1.27)) hide)
      )
      (property "Sim.Type" "GUMMELPOON" (at 0 0 0)
        (effects (font (size 1.27 1.27)) hide)
      )
      (property "Sim.Pins" "1=C 2=B 3=E" (at 0 0 0)
        (effects (font (size 1.27 1.27)) hide)
      )
      (property "ki_keywords" "simulation" (at 0 0 0)
        (effects (font (size 1.27 1.27)) hide)
      )
      (property "ki_description" "Bipolar transistor symbol for simulation only, substrate tied to the emitter" (at 0 0 0)
        (effects (font (size 1.27 1.27)) hide)
      )
      (symbol "NPN_0_1"
        (polyline
          (pts
            (xy -2.54 0)
            (xy 0.635 0)
          )
          (stroke (width 0.1524) (type default))
          (fill (type none))
        )
        (polyline
          (pts
            (xy 0.635 0.635)
            (xy 2.54 2.54)
          )
          (stroke (width 0) (type default))
          (fill (type none))
        )
        (polyline
          (pts
            (xy 2.794 -1.27)
            (xy 2.794 -1.27)
          )
          (stroke (width 0.1524) (type default))
          (fill (type none))
        )
        (polyline
          (pts
            (xy 2.794 -1.27)
            (xy 2.794 -1.27)
          )
          (stroke (width 0.1524) (type default))
          (fill (type none))
        )
        (polyline
          (pts
            (xy 0.635 -0.635)
            (xy 2.54 -2.54)
            (xy 2.54 -2.54)
          )
          (stroke (width 0) (type default))
          (fill (type none))
        )
        (polyline
          (pts
            (xy 0.635 1.905)
            (xy 0.635 -1.905)
            (xy 0.635 -1.905)
          )
          (stroke (width 0.508) (type default))
          (fill (type none))
        )
        (polyline
          (pts
            (xy 1.27 -1.778)
            (xy 1.778 -1.27)
            (xy 2.286 -2.286)
            (xy 1.27 -1.778)
            (xy 1.27 -1.778)
          )
          (stroke (width 0) (type default))
          (fill (type outline))
        )
        (circle (center 1.27 0) (radius 2.8194)
          (stroke (width 0.254) (type default))
          (fill (type none))
        )
      )
      (symbol "NPN_1_1"
        (pin open_collector line (at 2.54 5.08 270) (length 2.54)
          (name "C" (effects (font (size 1.27 1.27))))
          (number "1" (effects (font (size 1.27 1.27))))
        )
        (pin input line (at -5.08 0 0) (length 2.54)
          (name "B" (effects (font (size 1.27 1.27))))
          (number "2" (effects (font (size 1.27 1.27))))
        )
        (pin open_emitter line (at 2.54 -5.08 90) (length 2.54)
          (name "E" (effects (font (size 1.27 1.27))))
          (number "3" (effects (font (size 1.27 1.27))))
        )
      )
    )
  )

  (junction (at 134.62 88.9) (diameter 0) (color 0 0 0 0)
    (uuid 1c98a085-8057-4953-bb92-86ce565e3e6a)
  )
  (junction (at 152.4 80.01) (diameter 0) (color 0 0 0 0)
    (uuid 52eebdb4-18b7-4ac7-a4f4-e1d29038ae2a)
  )
  (junction (at 134.62 55.88) (diameter 0) (color 0 0 0 0)
    (uuid 5ff3accd-ca73-4a3c-a998-ee7f22075ccc)
  )
  (junction (at 148.59 43.18) (diameter 0) (color 0 0 0 0)
    (uuid 613da098-f8f6-4b60-9786-01cbe5f03155)
  )
  (junction (at 134.62 43.18) (diameter 0) (color 0 0 0 0)
    (uuid 6d242a24-2e2f-4e33-b46c-1c58e137e4c7)
  )
  (junction (at 105.41 43.18) (diameter 0) (color 0 0 0 0)
    (uuid 968d6b3f-51c4-4cb7-bccd-9b60ab0bcc82)
  )
  (junction (at 118.11 88.9) (diameter 0) (color 0 0 0 0)
    (uuid 9950ffd9-b4d9-461e-8208-ca3e5c4a1388)
  )
  (junction (at 152.4 55.88) (diameter 0) (color 0 0 0 0)
    (uuid c7ad1456-5efb-4adc-8539-789c75687c1f)
  )
  (junction (at 105.41 88.9) (diameter 0) (color 0 0 0 0)
    (uuid ccb1231e-d1b7-4021-a0ca-e047e070d4db)
  )

  (wire (pts (xy 161.29 80.01) (xy 152.4 80.01))
    (stroke (width 0) (type default))
    (uuid 06c8e46d-684a-436e-86cb-f8b66851a3ce)
  )
  (wire (pts (xy 134.62 76.2) (xy 134.62 80.01))
    (stroke (width 0) (type default))
    (uuid 0a47d1ce-01c8-4e58-9d69-2ef110fb87b3)
  )
  (wire (pts (xy 118.11 55.88) (xy 118.11 59.69))
    (stroke (width 0) (type default))
    (uuid 0ab76124-989c-4ef6-b64d-f588da13d087)
  )
  (wire (pts (xy 105.41 43.18) (xy 105.41 46.99))
    (stroke (width 0) (type default))
    (uuid 0f2a7905-4d4d-4068-9e95-13ec13e3da76)
  )
  (wire (pts (xy 102.87 72.39) (xy 102.87 62.23))
    (stroke (width 0) (type default))
    (uuid 24321e4a-a3ea-4b29-a175-239efe387d34)
  )
  (wire (pts (xy 49.53 62.23) (xy 52.07 62.23))
    (stroke (width 0) (type default))
    (uuid 3a452b2d-bf4e-459a-a109-62b5eac39e1d)
  )
  (wire (pts (xy 105.41 52.07) (xy 105.41 88.9))
    (stroke (width 0) (type default))
    (uuid 3b434fc7-e6cc-448a-a8d0-72a90f8a76cd)
  )
  (wire (pts (xy 152.4 80.01) (xy 152.4 88.9))
    (stroke (width 0) (type default))
    (uuid 4218b57d-214b-4d83-95ee-40e503c4c345)
  )
  (wire (pts (xy 134.62 64.77) (xy 134.62 68.58))
    (stroke (width 0) (type default))
    (uuid 42a67422-1c9d-4116-809c-35d1d49cb9c0)
  )
  (wire (pts (xy 59.69 64.77) (xy 59.69 67.31))
    (stroke (width 0) (type default))
    (uuid 48a1c527-0043-4b3c-a4bd-5e72382dbc0a)
  )
  (wire (pts (xy 147.32 43.18) (xy 148.59 43.18))
    (stroke (width 0) (type default))
    (uuid 4bcad02a-5969-432b-b0ab-387799b395f5)
  )
  (wire (pts (xy 59.69 67.31) (xy 62.23 67.31))
    (stroke (width 0) (type default))
    (uuid 4de72580-8ce1-457b-9e04-874a95ae1b4f)
  )
  (wire (pts (xy 134.62 55.88) (xy 118.11 55.88))
    (stroke (width 0) (type default))
    (uuid 66209145-3216-4e27-b7f2-8cf235bf6492)
  )
  (wire (pts (xy 134.62 55.88) (xy 134.62 59.69))
    (stroke (width 0) (type default))
    (uuid 6e314982-a1be-427d-b638-5e0b5a33ad00)
  )
  (wire (pts (xy 49.53 64.77) (xy 59.69 64.77))
    (stroke (width 0) (type default))
    (uuid 7ec09244-feb0-4bf8-abfe-8c315abfeca3)
  )
  (wire (pts (xy 105.41 43.18) (xy 134.62 43.18))
    (stroke (width 0) (type default))
    (uuid 7f58b595-2776-4703-b2b9-3914e85ec4ea)
  )
  (wire (pts (xy 134.62 88.9) (xy 152.4 88.9))
    (stroke (width 0) (type default))
    (uuid 804ef98f-29cd-4112-bbb6-64ef24e6d340)
  )
  (wire (pts (xy 59.69 62.23) (xy 62.23 62.23))
    (stroke (width 0) (type default))
    (uuid 87f20929-9d67-4da6-b8fa-d017c60d0a69)
  )
  (wire (pts (xy 161.29 66.04) (xy 161.29 80.01))
    (stroke (width 0) (type default))
    (uuid 8aa2fb89-3d03-431b-ab1a-da872864fd73)
  )
  (wire (pts (xy 152.4 43.18) (xy 148.59 43.18))
    (stroke (width 0) (type default))
    (uuid 8b8710b8-6efc-4e78-9e84-3846e640ef03)
  )
  (wire (pts (xy 152.4 55.88) (xy 152.4 43.18))
    (stroke (width 0) (type default))
    (uuid 8be7e644-c2de-4443-9ec7-b3f2fc1b507c)
  )
  (wire (pts (xy 134.62 52.07) (xy 134.62 55.88))
    (stroke (width 0) (type default))
    (uuid 9416c821-3c2b-43e1-83e2-169d34778859)
  )
  (wire (pts (xy 152.4 55.88) (xy 161.29 55.88))
    (stroke (width 0) (type default))
    (uuid 9bf55e6a-e2d4-4939-bcc7-5dcfba502f54)
  )
  (wire (pts (xy 118.11 88.9) (xy 134.62 88.9))
    (stroke (width 0) (type default))
    (uuid 9eb5a9b7-bd60-43c7-9812-6bfbb0e019da)
  )
  (wire (pts (xy 152.4 55.88) (xy 152.4 59.69))
    (stroke (width 0) (type default))
    (uuid 9f1cd919-ab65-4ba8-b3e2-d8a63cefddb5)
  )
  (wire (pts (xy 143.51 72.39) (xy 143.51 50.8))
    (stroke (width 0) (type default))
    (uuid a0a8ba29-f3bb-42cd-9ffa-577b3bbeba42)
  )
  (wire (pts (xy 161.29 55.88) (xy 161.29 63.5))
    (stroke (width 0) (type default))
    (uuid a5fd96f1-5706-4edc-8f07-6b4e0954f4ef)
  )
  (wire (pts (xy 95.25 43.18) (xy 95.25 54.61))
    (stroke (width 0) (type default))
    (uuid ad14be46-9aa6-4a40-8173-3c7526d35b49)
  )
  (wire (pts (xy 134.62 43.18) (xy 134.62 46.99))
    (stroke (width 0) (type default))
    (uuid b11ea376-609a-479e-8832-d28e979f737d)
  )
  (wire (pts (xy 118.11 67.31) (xy 118.11 88.9))
    (stroke (width 0) (type default))
    (uuid b25cd378-a53f-4ade-965a-5bec810e3220)
  )
  (wire (pts (xy 95.25 88.9) (xy 95.25 69.85))
    (stroke (width 0) (type default))
    (uuid b771222d-f60b-42d7-97a1-886594960ec6)
  )
  (wire (pts (xy 82.55 62.23) (xy 87.63 62.23))
    (stroke (width 0) (type default))
    (uuid b7c57498-957f-4299-b278-d320a6bef6bd)
  )
  (wire (pts (xy 138.43 72.39) (xy 143.51 72.39))
    (stroke (width 0) (type default))
    (uuid b7ea210b-268f-4be7-8f59-408d3b8655d1)
  )
  (wire (pts (xy 118.11 88.9) (xy 105.41 88.9))
    (stroke (width 0) (type default))
    (uuid ba7de95d-b9ee-4dc7-8f64-fc836d16a4bd)
  )
  (wire (pts (xy 152.4 67.31) (xy 152.4 71.12))
    (stroke (width 0) (type default))
    (uuid be3d5fc6-a054-4193-821c-77974f0dd6eb)
  )
  (wire (pts (xy 105.41 88.9) (xy 95.25 88.9))
    (stroke (width 0) (type default))
    (uuid c21d7a43-8fa7-4e12-8f42-1e2fb2c22cdd)
  )
  (wire (pts (xy 82.55 72.39) (xy 102.87 72.39))
    (stroke (width 0) (type default))
    (uuid c8f8d631-3366-4408-a804-ce7fa47d75b1)
  )
  (wire (pts (xy 95.25 43.18) (xy 105.41 43.18))
    (stroke (width 0) (type default))
    (uuid d7d2bf8b-39a8-4fa4-b067-edf44ecc36b7)
  )
  (wire (pts (xy 134.62 85.09) (xy 134.62 88.9))
    (stroke (width 0) (type default))
    (uuid da413c81-4184-49b5-a4b9-8a5aabb35d86)
  )
  (wire (pts (xy 134.62 43.18) (xy 138.43 43.18))
    (stroke (width 0) (type default))
    (uuid e932c389-d020-4938-ad23-73c6d5854c3d)
  )
  (wire (pts (xy 82.55 67.31) (xy 82.55 72.39))
    (stroke (width 0) (type default))
    (uuid f5724d04-ccef-4c8b-abd7-8a865055fd88)
  )
  (wire (pts (xy 152.4 76.2) (xy 152.4 80.01))
    (stroke (width 0) (type default))
    (uuid f94aaeeb-998a-4103-a611-f5763b07b0bb)
  )

  (symbol (lib_id "Diode_Bridge:ABS2") (at 95.25 62.23 90) (unit 1)
    (in_bom yes) (on_board yes) (dnp no)
    (uuid 27c6c832-9b82-4a20-9c8c-954d1e2765a5)
    (property "Reference" "D1" (at 88.9 55.88 90)
      (effects (font (size 1.27 1.27)) (justify top))
    )
    (property "Value" "ABS2" (at 88.9 58.42 90)
      (effects (font (size 1.27 1.27)) (justify top))
    )
    (property "Footprint" "Diode_SMD:Diode_Bridge_Diotec_ABS" (at 92.075 58.42 0)
      (effects (font (size 1.27 1.27)) (justify left) hide)
    )
    (property "Datasheet" "https://diotec.com/tl_files/diotec/files/pdf/datasheets/abs2.pdf" (at 95.25 62.23 0)
      (effects (font (size 1.27 1.27)) hide)
    )
    (pin "1" (uuid a4faf7f2-5d1e-4f28-97f1-31a278042864))
    (pin "2" (uuid e722d805-b9a0-4cc2-937e-a3601c777b8d))
    (pin "3" (uuid 11205abe-35f6-4d40-b174-bf1e44cc7f2c))
    (pin "4" (uuid 711364d5-69cf-48b8-a376-40245e2a9bba))
    (instances
      (project "fonte-de-tensao"
        (path "/83942185-8788-4573-9806-c723a0db36ce"
          (reference "D1") (unit 1)
        )
      )
    )
  )

  (symbol (lib_id "Device:R_Small_US") (at 152.4 73.66 0) (mirror y) (unit 1)
    (in_bom yes) (on_board yes) (dnp no)
    (uuid 2b956f6a-7cae-4d04-8b62-ef9c07ee6adf)
    (property "Reference" "R4" (at 149.86 72.39 0)
      (effects (font (size 1.27 1.27)) (justify left))
    )
    (property "Value" "12 kΩ" (at 149.86 74.93 0)
      (effects (font (size 1.27 1.27)) (justify left))
    )
    (property "Footprint" "Resistor_THT:R_Axial_DIN0204_L3.6mm_D1.6mm_P5.08mm_Horizontal" (at 152.4 73.66 0)
      (effects (font (size 1.27 1.27)) hide)
    )
    (property "Datasheet" "~" (at 152.4 73.66 0)
      (effects (font (size 1.27 1.27)) hide)
    )
    (pin "1" (uuid 72eb80bb-9a93-4467-b10d-98f4c9d63e6e))
    (pin "2" (uuid da021185-0317-4ae3-a97b-835801774182))
    (instances
      (project "fonte-de-tensao"
        (path "/83942185-8788-4573-9806-c723a0db36ce"
          (reference "R4") (unit 1)
        )
      )
    )
  )

  (symbol (lib_id "Connector:Conn_01x02_Pin") (at 166.37 63.5 0) (mirror y) (unit 1)
    (in_bom yes) (on_board yes) (dnp no)
    (uuid 38bc1a34-5da8-4dfd-b2d7-5a3fa73ed6ab)
    (property "Reference" "DC1" (at 168.91 63.5 0)
      (effects (font (size 1.27 1.27)) (justify right))
    )
    (property "Value" "Conn_01x02_Pin" (at 168.91 66.04 0)
      (effects (font (size 1.27 1.27)) (justify right))
    )
    (property "Footprint" "Connector_PinHeader_2.00mm:PinHeader_1x02_P2.00mm_Horizontal" (at 166.37 63.5 0)
      (effects (font (size 1.27 1.27)) hide)
    )
    (property "Datasheet" "~" (at 166.37 63.5 0)
      (effects (font (size 1.27 1.27)) hide)
    )
    (pin "1" (uuid c6342346-4ca7-4fd7-b92d-de96aa98c29a))
    (pin "2" (uuid 6aa4ff40-1e4a-4646-b4d3-da1186f24c67))
    (instances
      (project "fonte-de-tensao"
        (path "/83942185-8788-4573-9806-c723a0db36ce"
          (reference "DC1") (unit 1)
        )
      )
    )
  )

  (symbol (lib_name "Conn_01x02_Pin_1") (lib_id "Connector:Conn_01x02_Pin") (at 44.45 64.77 0) (mirror x) (unit 1)
    (in_bom yes) (on_board yes) (dnp no)
    (uuid 420b6540-f021-43f4-887d-de5ecf25e6f1)
    (property "Reference" "AC1" (at 41.91 64.77 0)
      (effects (font (size 1.27 1.27)) (justify right))
    )
    (property "Value" "Conn_01x02_Pin" (at 41.91 62.23 0)
      (effects (font (size 1.27 1.27)) (justify right))
    )
    (property "Footprint" "Connector_PinHeader_2.00mm:PinHeader_1x02_P2.00mm_Horizontal" (at 44.45 58.42 0)
      (effects (font (size 1.27 1.27)) hide)
    )
    (property "Datasheet" "~" (at 44.45 63.5 0)
      (effects (font (size 1.27 1.27)) hide)
    )
    (pin "1" (uuid 2df3e245-edb5-41c4-9166-7bf5a3364bcc))
    (pin "2" (uuid 85f414e7-abf7-4d49-a959-8847aab55db8))
    (instances
      (project "fonte-de-tensao"
        (path "/83942185-8788-4573-9806-c723a0db36ce"
          (reference "AC1") (unit 1)
        )
      )
    )
  )

  (symbol (lib_id "Device:R_Small_US") (at 134.62 82.55 0) (mirror y) (unit 1)
    (in_bom yes) (on_board yes) (dnp no)
    (uuid 51f32796-a81d-44c8-a537-1a7f13e3f707)
    (property "Reference" "R3" (at 132.08 81.28 0)
      (effects (font (size 1.27 1.27)) (justify left))
    )
    (property "Value" "5.5 kΩ" (at 132.08 83.82 0)
      (effects (font (size 1.27 1.27)) (justify left))
    )
    (property "Footprint" "Resistor_THT:R_Axial_DIN0204_L3.6mm_D1.6mm_P5.08mm_Horizontal" (at 134.62 82.55 0)
      (effects (font (size 1.27 1.27)) hide)
    )
    (property "Datasheet" "~" (at 134.62 82.55 0)
      (effects (font (size 1.27 1.27)) hide)
    )
    (pin "1" (uuid fdd9166f-3506-4b73-8ed6-9a8bc21927a9))
    (pin "2" (uuid 84b21986-3562-4a93-bbab-5c97f6930a69))
    (instances
      (project "fonte-de-tensao"
        (path "/83942185-8788-4573-9806-c723a0db36ce"
          (reference "R3") (unit 1)
        )
      )
    )
  )

  (symbol (lib_id "Device:R_Small_US") (at 134.62 49.53 0) (mirror y) (unit 1)
    (in_bom yes) (on_board yes) (dnp no)
    (uuid 6a133921-a193-4384-956f-8064a3b39b4b)
    (property "Reference" "R1" (at 132.08 48.26 0)
      (effects (font (size 1.27 1.27)) (justify left))
    )
    (property "Value" "1.5 kΩ" (at 132.08 50.8 0)
      (effects (font (size 1.27 1.27)) (justify left))
    )
    (property "Footprint" "Resistor_THT:R_Axial_DIN0204_L3.6mm_D1.6mm_P5.08mm_Horizontal" (at 134.62 49.53 0)
      (effects (font (size 1.27 1.27)) hide)
    )
    (property "Datasheet" "~" (at 134.62 49.53 0)
      (effects (font (size 1.27 1.27)) hide)
    )
    (pin "1" (uuid b626d326-6440-4c4d-b0c0-65ce6e8a8230))
    (pin "2" (uuid 847e96cb-97b9-4703-9cae-c3973815f22e))
    (instances
      (project "fonte-de-tensao"
        (path "/83942185-8788-4573-9806-c723a0db36ce"
          (reference "R1") (unit 1)
        )
      )
    )
  )

  (symbol (lib_id "Device:LED") (at 152.4 63.5 90) (unit 1)
    (in_bom yes) (on_board yes) (dnp no)
    (uuid 6c813f10-af56-4c8d-9eb3-324f1c3c105c)
    (property "Reference" "D3" (at 149.86 63.8175 90)
      (effects (font (size 1.27 1.27)) (justify left))
    )
    (property "Value" "LED" (at 149.86 66.3575 90)
      (effects (font (size 1.27 1.27)) (justify left))
    )
    (property "Footprint" "LED_THT:LED_D1.8mm_W3.3mm_H2.4mm" (at 152.4 63.5 0)
      (effects (font (size 1.27 1.27)) hide)
    )
    (property "Datasheet" "~" (at 152.4 63.5 0)
      (effects (font (size 1.27 1.27)) hide)
    )
    (pin "1" (uuid ec25ad9b-b94a-4cec-968d-a27d6f8b52b3))
    (pin "2" (uuid 5f913344-ea60-4f80-b2fe-2279afdae497))
    (instances
      (project "fonte-de-tensao"
        (path "/83942185-8788-4573-9806-c723a0db36ce"
          (reference "D3") (unit 1)
        )
      )
    )
  )

  (symbol (lib_id "Simulation_SPICE:NPN") (at 143.51 45.72 90) (unit 1)
    (in_bom yes) (on_board yes) (dnp no) (fields_autoplaced)
    (uuid 7bfb926d-b4de-42ac-a030-fa5e51b503a7)
    (property "Reference" "Q1" (at 143.51 38.1 90)
      (effects (font (size 1.27 1.27)))
    )
    (property "Value" "NPN" (at 143.51 40.64 90)
      (effects (font (size 1.27 1.27)))
    )
    (property "Footprint" "Package_TO_SOT_THT:TO-92" (at 143.51 -17.78 0)
      (effects (font (size 1.27 1.27)) hide)
    )
    (property "Datasheet" "~" (at 143.51 -17.78 0)
      (effects (font (size 1.27 1.27)) hide)
    )
    (property "Sim.Device" "NPN" (at 143.51 45.72 0)
      (effects (font (size 1.27 1.27)) hide)
    )
    (property "Sim.Type" "GUMMELPOON" (at 143.51 45.72 0)
      (effects (font (size 1.27 1.27)) hide)
    )
    (property "Sim.Pins" "1=C 2=B 3=E" (at 143.51 45.72 0)
      (effects (font (size 1.27 1.27)) hide)
    )
    (pin "1" (uuid f5d778c9-8974-496f-a6dd-562e420349cf))
    (pin "2" (uuid 409e3ac3-9d5b-4e47-9983-d3623a4e720c))
    (pin "3" (uuid cc1e86a7-81f2-4330-a2d7-2f7cbad14316))
    (instances
      (project "fonte-de-tensao"
        (path "/83942185-8788-4573-9806-c723a0db36ce"
          (reference "Q1") (unit 1)
        )
      )
    )
  )

  (symbol (lib_id "Device:C_Polarized_Small_US") (at 105.41 49.53 0) (unit 1)
    (in_bom yes) (on_board yes) (dnp no) (fields_autoplaced)
    (uuid a1401654-eb04-4fd6-a4fd-014ca12352ee)
    (property "Reference" "C1" (at 107.95 47.8282 0)
      (effects (font (size 1.27 1.27)) (justify left))
    )
    (property "Value" "570 µF" (at 107.95 50.3682 0)
      (effects (font (size 1.27 1.27)) (justify left))
    )
    (property "Footprint" "Capacitor_THT:CP_Axial_L10.0mm_D4.5mm_P15.00mm_Horizontal" (at 105.41 49.53 0)
      (effects (font (size 1.27 1.27)) hide)
    )
    (property "Datasheet" "~" (at 105.41 49.53 0)
      (effects (font (size 1.27 1.27)) hide)
    )
    (pin "1" (uuid 3ec21dab-ed48-45b4-810a-7855a2b54e24))
    (pin "2" (uuid 0fcbc4d7-4b00-4845-ad71-5ca9da2a02da))
    (instances
      (project "fonte-de-tensao"
        (path "/83942185-8788-4573-9806-c723a0db36ce"
          (reference "C1") (unit 1)
        )
      )
    )
  )

  (symbol (lib_id "Device:Fuse") (at 55.88 62.23 270) (unit 1)
    (in_bom yes) (on_board yes) (dnp no) (fields_autoplaced)
    (uuid a1fa0130-b29f-4b1e-91eb-76652bae25aa)
    (property "Reference" "F1" (at 55.88 57.15 90)
      (effects (font (size 1.27 1.27)))
    )
    (property "Value" "Fuse" (at 55.88 59.69 90)
      (effects (font (size 1.27 1.27)))
    )
    (property "Footprint" "Fuse:Fuseholder_Cylinder-5x20mm_Schurter_0031_8201_Horizontal_Open" (at 55.88 60.452 90)
      (effects (font (size 1.27 1.27)) hide)
    )
    (property "Datasheet" "~" (at 55.88 62.23 0)
      (effects (font (size 1.27 1.27)) hide)
    )
    (pin "1" (uuid bc808dae-b3c2-454b-b99b-6c7497707669))
    (pin "2" (uuid bffaf0ba-97dc-4d5d-8f4e-9cffadd45398))
    (instances
      (project "fonte-de-tensao"
        (path "/83942185-8788-4573-9806-c723a0db36ce"
          (reference "F1") (unit 1)
        )
      )
    )
  )

  (symbol (lib_id "Device:R_Potentiometer_US") (at 134.62 72.39 0) (unit 1)
    (in_bom yes) (on_board yes) (dnp no)
    (uuid abfefe78-572c-420f-8274-89f739b99af5)
    (property "Reference" "RV1" (at 132.08 73.66 0)
      (effects (font (size 1.27 1.27)) (justify right))
    )
    (property "Value" "10 kΩ" (at 132.08 71.12 0)
      (effects (font (size 1.27 1.27)) (justify right))
    )
    (property "Footprint" "Potentiometer_THT:Potentiometer_Bourns_3339P_Vertical_HandSoldering" (at 134.62 72.39 0)
      (effects (font (size 1.27 1.27)) hide)
    )
    (property "Datasheet" "~" (at 134.62 72.39 0)
      (effects (font (size 1.27 1.27)) hide)
    )
    (pin "1" (uuid d00c5c7b-0f45-4872-a762-2f6c94952acb))
    (pin "2" (uuid 3fe47d49-e39d-4be8-9f34-369351599f69))
    (pin "3" (uuid 1bdce6df-31c1-45fe-a913-c8ec0c22d3f5))
    (instances
      (project "fonte-de-tensao"
        (path "/83942185-8788-4573-9806-c723a0db36ce"
          (reference "RV1") (unit 1)
        )
      )
    )
  )

  (symbol (lib_id "Converter_ACDC:IRM-02-3.3") (at 72.39 64.77 0) (unit 1)
    (in_bom yes) (on_board yes) (dnp no)
    (uuid e20a20af-49b1-4334-81e7-bfda6fa66b83)
    (property "Reference" "PS1" (at 72.39 57.15 0)
      (effects (font (size 1.27 1.27)))
    )
    (property "Value" "IRM-02-3.3" (at 72.39 59.69 0)
      (effects (font (size 1.27 1.27)))
    )
    (property "Footprint" "Converter_ACDC:Converter_ACDC_MeanWell_IRM-02-xx_THT" (at 72.39 72.39 0)
      (effects (font (size 1.27 1.27)) hide)
    )
    (property "Datasheet" "https://www.meanwell.com/Upload/PDF/IRM-02/IRM-02-SPEC.PDF" (at 82.55 73.66 0)
      (effects (font (size 1.27 1.27)) hide)
    )
    (pin "1" (uuid 0468f6b7-0f65-4b65-9cba-0d1851bcc6b8))
    (pin "2" (uuid 30ed693d-c408-4730-9145-f82b3faf25ed))
    (pin "3" (uuid fe9a571f-860e-455a-a79b-79f20e96d017))
    (pin "4" (uuid 8e70ea99-9498-407c-afd8-ada5b00b0c1a))
    (instances
      (project "fonte-de-tensao"
        (path "/83942185-8788-4573-9806-c723a0db36ce"
          (reference "PS1") (unit 1)
        )
      )
    )
  )

  (symbol (lib_id "Device:D_Zener") (at 118.11 63.5 0) (mirror y) (unit 1)
    (in_bom yes) (on_board yes) (dnp no)
    (uuid e6298302-c9b0-4a25-8ee9-460396e34e2d)
    (property "Reference" "D2" (at 113.03 60.96 0)
      (effects (font (size 1.27 1.27)) (justify right))
    )
    (property "Value" "D_Zener" (at 107.95 63.5 0)
      (effects (font (size 1.27 1.27)) (justify right))
    )
    (property "Footprint" "Diode_THT:D_5KPW_P12.70mm_Horizontal" (at 116.84 63.5 0)
      (effects (font (size 1.27 1.27)) hide)
    )
    (property "Datasheet" "~" (at 116.84 63.5 90)
      (effects (font (size 1.27 1.27)) hide)
    )
    (property "Breakdown Voltage" "13 V" (at 110.49 66.04 0)
      (effects (font (size 1.27 1.27)) (justify right))
    )
    (pin "1" (uuid 6a242aeb-6117-485d-aaf4-ab4931ac5d1b))
    (pin "2" (uuid ab67f9e2-92cb-4d1a-9d49-17dc867e6157))
    (instances
      (project "fonte-de-tensao"
        (path "/83942185-8788-4573-9806-c723a0db36ce"
          (reference "D2") (unit 1)
        )
      )
    )
  )

  (symbol (lib_id "Device:R_Small_US") (at 134.62 62.23 0) (mirror y) (unit 1)
    (in_bom yes) (on_board yes) (dnp no)
    (uuid fdf647c2-a72b-45ee-bed9-68fb233ec522)
    (property "Reference" "R2" (at 132.08 60.96 0)
      (effects (font (size 1.27 1.27)) (justify left))
    )
    (property "Value" "100 Ω" (at 132.08 63.5 0)
      (effects (font (size 1.27 1.27)) (justify left))
    )
    (property "Footprint" "Resistor_THT:R_Axial_DIN0204_L3.6mm_D1.6mm_P5.08mm_Horizontal" (at 134.62 62.23 0)
      (effects (font (size 1.27 1.27)) hide)
    )
    (property "Datasheet" "~" (at 134.62 62.23 0)
      (effects (font (size 1.27 1.27)) hide)
    )
    (pin "1" (uuid c5a23694-5cd5-47fd-ae77-60491eda0930))
    (pin "2" (uuid 87d1bf72-d450-4c38-bc0c-eb048301fd12))
    (instances
      (project "fonte-de-tensao"
        (path "/83942185-8788-4573-9806-c723a0db36ce"
          (reference "R2") (unit 1)
        )
      )
    )
  )

  (sheet_instances
    (path "/" (page "1"))
  )
)
